module gosecretsanta

require (
	github.com/BurntSushi/toml v0.3.1 // indirect
	github.com/Joker/jade v1.0.0 // indirect
	github.com/Shopify/goreferrer v0.0.0-20181106222321-ec9c9a553398 // indirect
	github.com/ajg/form v0.0.0-20160822230020-523a5da1a92f // indirect
	github.com/aymerick/raymond v2.0.2+incompatible // indirect
	github.com/cweill/gotests v1.5.2 // indirect
	github.com/eknkc/amber v0.0.0-20171010120322-cdade1c07385 // indirect
	github.com/fatih/structs v1.1.0 // indirect
	github.com/flosch/pongo2 v0.0.0-20181225140029-79872a7b2769 // indirect
	github.com/gavv/monotime v0.0.0-20171021193802-6f8212e8d10d // indirect
	github.com/google/go-querystring v1.0.0 // indirect
	github.com/gopherjs/gopherjs v0.0.0-20181103185306-d547d1d9531e // indirect
	github.com/imkira/go-interpol v1.1.0 // indirect
	github.com/iris-contrib/blackfriday v2.0.0+incompatible // indirect
	github.com/iris-contrib/formBinder v0.0.0-20171010160137-ad9fb86c356f // indirect
	github.com/iris-contrib/go.uuid v2.0.0+incompatible // indirect
	github.com/iris-contrib/httpexpect v0.0.0-20180314041918-ebe99fcebbce // indirect
	github.com/json-iterator/go v1.1.5 // indirect
	github.com/jtolds/gls v4.2.1+incompatible // indirect
	github.com/k0kubun/colorstring v0.0.0-20150214042306-9440f1994b88 // indirect
	github.com/kataras/golog v0.0.0-20180321173939-03be10146386
	github.com/kataras/iris v11.1.0+incompatible
	github.com/kataras/pio v0.0.0-20180511174041-a9733b5b6b83 // indirect
	github.com/klauspost/compress v1.4.1 // indirect
	github.com/klauspost/cpuid v1.2.0 // indirect
	github.com/matcornic/hermes/v2 v2.0.1
	github.com/mattn/go-colorable v0.0.9 // indirect
	github.com/mattn/go-isatty v0.0.4 // indirect
	github.com/microcosm-cc/bluemonday v1.0.2 // indirect
	github.com/modern-go/concurrent v0.0.0-20180306012644-bacd9c7ef1dd // indirect
	github.com/modern-go/reflect2 v1.0.1 // indirect
	github.com/moul/http2curl v1.0.0 // indirect
	github.com/onsi/ginkgo v1.7.0 // indirect
	github.com/onsi/gomega v1.4.3 // indirect
	github.com/ryanuber/columnize v2.1.0+incompatible // indirect
	github.com/sergi/go-diff v1.0.0 // indirect
	github.com/shurcooL/sanitized_anchor_name v1.0.0 // indirect
	github.com/smartystreets/assertions v0.0.0-20180927180507-b2de0cb4f26d // indirect
	github.com/smartystreets/goconvey v0.0.0-20181108003508-044398e4856c // indirect
	github.com/spf13/viper v1.3.1
	github.com/stretchr/testify v1.2.2
	github.com/vektra/mockery v0.0.0-20181123154057-e78b021dcbb5 // indirect
	github.com/xeipuuv/gojsonpointer v0.0.0-20180127040702-4e3ac2762d5f // indirect
	github.com/xeipuuv/gojsonreference v0.0.0-20180127040603-bd5ef7bd5415 // indirect
	github.com/xeipuuv/gojsonschema v0.0.0-20181112162635-ac52e6811b56 // indirect
	github.com/yalp/jsonpath v0.0.0-20180802001716-5cc68e5049a0 // indirect
	github.com/yudai/gojsondiff v1.0.0 // indirect
	github.com/yudai/golcs v0.0.0-20170316035057-ecda9a501e82 // indirect
	github.com/yudai/pp v2.0.1+incompatible // indirect
	golang.org/x/sys v0.0.0-20181228144115-9a3f9b0469bb // indirect
	golang.org/x/tools v0.0.0-20181221235234-d00ac6d27372 // indirect
	gopkg.in/alexcesaro/quotedprintable.v3 v3.0.0-20150716171945-2caba252f4dc // indirect
	gopkg.in/gomail.v2 v2.0.0-20160411212932-81ebce5c23df
)
